{
  "radiohead-ok_computer": {
    "cover": "https://upload.wikimedia.org/wikipedia/en/thumb/a/a1/Radiohead.okcomputer.albumart.jpg/220px-Radiohead.okcomputer.albumart.jpg",
    "name": "Radiohead - OK Computer"
  },
  "radiohead-kid_a": {
    "cover": "https://upload.wikimedia.org/wikipedia/en/thumb/b/b5/Radiohead.kida.albumart.jpg/220px-Radiohead.kida.albumart.jpg",
    "name": "Radiohead - Kid A"
  },
  "autechre-amber": {
    "cover": "https://upload.wikimedia.org/wikipedia/en/thumb/5/59/Autechre_-_Amber_cover_art.png/220px-Autechre_-_Amber_cover_art.png",
    "name": "Autechre - Amber"
  },
  "godspeed_you!_black_emperor-lift_your_skinny_fists_like_antennas_to_heaven": {
    "cover": "https://upload.wikimedia.org/wikipedia/en/thumb/d/d3/Liftyrskinnyfists.jpg/220px-Liftyrskinnyfists.jpg",
    "name": "Godspeed You! Black Emperor - Lift Your Skinny Fists Like Antennas to Heaven"
  },
  "the-knife-silent-shout": {
    "cover": "https://upload.wikimedia.org/wikipedia/en/thumb/e/ef/The_Knife_-_Silent_Shout_%28album%29.png/220px-The_Knife_-_Silent_Shout_%28album%29.png",
    "name": "The knife - Silent shout"
  },
  "darkside-psychic": {
    "cover": "https://upload.wikimedia.org/wikipedia/en/thumb/9/9c/Darkside_Psychic_Cover.jpg/220px-Darkside_Psychic_Cover.jpg",
    "name": "Darkside - Psychic"
  },
  "aphex_twin-selected_ambient_works": {
    "cover": "https://upload.wikimedia.org/wikipedia/en/thumb/8/82/Selected_Ambient_Works_85-92.png/220px-Selected_Ambient_Works_85-92.png",
    "name": "Aphex twin - Selected ambient works"
  },
  "aphex_twin-drukqs": {
    "cover": "https://upload.wikimedia.org/wikipedia/en/thumb/f/f0/Drukqs_%28Front_Cover%29.png/220px-Drukqs_%28Front_Cover%29.png",
    "name": "Aphex twin - Drukqs"
  },
  "james_blake-james_blake": {
    "cover": "https://upload.wikimedia.org/wikipedia/en/thumb/b/b5/James_Blake_Cover.jpg/220px-James_Blake_Cover.jpg",
    "name": "James Blake - James Blake"
  },
  "nicolas_jaar-space_is_only_noise": {
    "cover": "https://upload.wikimedia.org/wikipedia/en/5/52/Nicolas_Jaar_-_Space_Is_Only_Noise.png",
    "name": "Nicolas Jaar - Space is only noise"
  },
  "villalobos-alcachofa": {
    "cover": "https://upload.wikimedia.org/wikipedia/en/thumb/1/1f/Alcachofa_%28album%29.jpeg/220px-Alcachofa_%28album%29.jpeg",
    "name": "Villalobos - Alcachofa"
  },
  "bonobo-black_sands": {
    "cover": "https://upload.wikimedia.org/wikipedia/en/thumb/4/49/Bonobo_-_Black_Sands.jpg/220px-Bonobo_-_Black_Sands.jpg",
    "name": "Bonobo - Black sands"
  },
  "tycho-dive": {
    "cover": "https://upload.wikimedia.org/wikipedia/en/1/11/Dive_tycho_album.jpg",
    "name": "Tycho - Dive"
  },
  "boards_of_canada-music_has_the_right_to_children": {
    "cover": "https://upload.wikimedia.org/wikipedia/en/thumb/e/e9/Musichastherighttochildren.jpg/220px-Musichastherighttochildren.jpg",
    "name": "Boards of Canada - Music has the right to children"
  },
  "kashiwa_daisuke-program_music": {
    "cover": "https://i.ytimg.com/vi/YeT0t1C_y20/hqdefault.jpg",
    "name": "Kashiwa Daisuke - program music"
  },
  "fuck_buttons-tarot_sport": {
    "cover": "https://upload.wikimedia.org/wikipedia/en/thumb/e/e8/Tarot_Sport.jpg/220px-Tarot_Sport.jpg",
    "name": "Fuck buttons - Tarot sport"
  },
  "neu!-neu!": {
    "cover": "http://upload.wikimedia.org/wikipedia/en/e/e2/Neu_albumcover.jpg",
    "name": "Neu! - Neu!"
  },
  "manuel_gottsching-e2_e4": {
    "cover": "https://images-na.ssl-images-amazon.com/images/I/41LMHM8evUL._SX355_.jpg",
    "name": "Manuel Gottsching - e2-e4"
  },
  "klaus_schulze-timewind": {
    "cover": "https://upload.wikimedia.org/wikipedia/en/thumb/4/48/Timewind.jpg/220px-Timewind.jpg",
    "name": "Klaus Schulze Timewind"
  },
  "tangerine_dream-phaedra": {
    "cover": "https://images-na.ssl-images-amazon.com/images/I/51IE7oBiG5L._SY355_.jpg",
    "name": "Tangerine Dream - Phaedra"
  },
  "mort_garson-plantasia": {
    "cover": "https://images-na.ssl-images-amazon.com/images/I/516krMJ3W7L._SX355_.jpg",
    "name": "Mort Garson - Plantasia"
  },
  "kanye_west-808s_and_heartbreak": {
    "cover": "https://upload.wikimedia.org/wikipedia/en/f/f1/808s_%26_Heartbreak.png",
    "name": "Kanye West - 808s & heartbreak"
  },
  "nujabes-metaphorical_music": {
    "cover": "https://upload.wikimedia.org/wikipedia/en/thumb/9/98/MetaphoricalMusic.jpg/220px-MetaphoricalMusic.jpg",
    "name": "Nujabes - Metaphorical music"
  },
  "tokimonsta-midnight_menu": {
    "cover": "https://images-na.ssl-images-amazon.com/images/I/71IGz3kWnxL._SY355_.jpg",
    "name": "Tokimonsta - Midnight menu"
  },
  "flying_lotus-cosmogramma": {
    "cover": "https://images-na.ssl-images-amazon.com/images/I/91KVuR4tctL._SY355_.jpg",
    "name": "Flying Lotus - Cosmogramma"
  },
  "orb-the_orb's_adventures_beyond_ultraworld": {
    "cover": "https://upload.wikimedia.org/wikipedia/en/thumb/d/d7/The_Orb_-_Adventures_Beyond_the_Ultraworld.jpg/220px-The_Orb_-_Adventures_Beyond_the_Ultraworld.jpg",
    "name": "Orb - The Orb's adventures beyond ultraworld"
  },
  "global_communication-76:14": {
    "cover": "https://upload.wikimedia.org/wikipedia/en/0/0d/GC_7614.jpg",
    "name": "Global communication - 76:14"
  },
  "brian_eno-ambient_2:_the_plateaux_of_mirror": {
    "cover": "https://upload.wikimedia.org/wikipedia/en/thumb/a/a5/The_Plateaux_of_Mirror.jpg/220px-The_Plateaux_of_Mirror.jpg",
    "name": "Brian Eno - Ambient 2: The Plateaux of Mirror"
  },
  "brian_eno-ambient_1:_music_for_airports": {
    "cover": "https://upload.wikimedia.org/wikipedia/en/thumb/4/46/Music_for_Airports.jpg/220px-Music_for_Airports.jpg",
    "name": "Brian Eno - Ambient 1: Music for airports"
  },
  "girl_talk-feed_the_animals": {
    "cover": "https://upload.wikimedia.org/wikipedia/en/thumb/8/80/Feed_the_Animals.jpg/220px-Feed_the_Animals.jpg",
    "name": "Girl talk - Feed the animals"
  },
  "burial_untrue": {
    "cover": "https://upload.wikimedia.org/wikipedia/en/thumb/6/64/BurialUntrue.jpg/220px-BurialUntrue.jpg",
    "name": "Burial - Untrue"
  },
  "lone-galaxy_garden": {
    "cover": "https://upload.wikimedia.org/wikipedia/en/thumb/a/ad/Galaxy-garden.jpeg/220px-Galaxy-garden.jpeg",
    "name": "Lone - Galaxy garden"
  },
  "the_future_sound_of_london-lifeforms": {
    "cover": "https://upload.wikimedia.org/wikipedia/en/thumb/6/61/FSOL_-_entire_lifeforms_artwork_-_Devil_Girl_and_Electronic_Brain.jpg/220px-FSOL_-_entire_lifeforms_artwork_-_Devil_Girl_and_Electronic_Brain.jpg",
    "name": "The future sound of london - Lifeforms"
  },
  "the_future_sound_of_london-accelerator": {
    "cover": "https://upload.wikimedia.org/wikipedia/en/thumb/a/a0/Fsol-accelerator.jpg/220px-Fsol-accelerator.jpg",
    "name": "The future sound of London - Accelerator"
  },
  "orbital-brown_album": {
    "cover": "https://upload.wikimedia.org/wikipedia/en/thumb/e/e3/Orbital_brown_album.jpg/220px-Orbital_brown_album.jpg",
    "name": "Orbital - Brown album"
  },
  "jon_hopkins-immunity": {
    "cover": "https://upload.wikimedia.org/wikipedia/en/thumb/2/2f/JonHopkinsImmunityAlbumCover.jpg/220px-JonHopkinsImmunityAlbumCover.jpg",
    "name": "Jon Hopkins - Immunity"
  },
  "helios-eingya": {
    "cover": "https://upload.wikimedia.org/wikipedia/en/thumb/6/60/Eingya.jpg/220px-Eingya.jpg",
    "name": "Helios - Eingya"
  },
  "dj_shadow-endtroducing": {
    "cover": "https://upload.wikimedia.org/wikipedia/en/thumb/c/c1/Endtroducingcover.jpg/220px-Endtroducingcover.jpg",
    "name": "Dj shadow - Endtroducing"
  },
  "the_avalanches-since_i_left_you": {
    "cover": "https://upload.wikimedia.org/wikipedia/en/thumb/9/97/Since_i_left_you.jpg/220px-Since_i_left_you.jpg",
    "name": "The avalanches - Since i left you"
  },
  "massive_attack-mezzanine": {
    "cover": "https://upload.wikimedia.org/wikipedia/en/thumb/e/e9/Massive_Attack_-_Mezzanine.png/220px-Massive_Attack_-_Mezzanine.png",
    "name": "Massive attack - Mezzanine"
  },
  "machinedrum-rooms": {
    "cover": "https://planet.mu/wp-content/uploads/2016/03/ZIQ307_Machinedrum_Rooms-650x650.jpg",
    "name": "Machinedrum - Room(s)"
  },
  "shpongle-are_you_shpongled": {
    "cover": "https://upload.wikimedia.org/wikipedia/en/thumb/6/6e/Are_You_Shpongled.jpg/220px-Are_You_Shpongled.jpg",
    "name": "Shpongle - Are you shpongled?"
  },
  "daft_punk-discovery": {
    "cover": "https://upload.wikimedia.org/wikipedia/en/thumb/a/ae/Daft_Punk_-_Discovery.jpg/220px-Daft_Punk_-_Discovery.jpg",
    "name": "Daft punk - Discovery"
  },
  "venetian_snares-rossz_csillag_alatt_szuletett": {
    "cover": "https://upload.wikimedia.org/wikipedia/en/thumb/5/5c/RosszCsillag.jpg/220px-RosszCsillag.jpg",
    "name": "Venetian snares - Rossz csillag alatt szuletett"
  },
  "goldie-timeless": {
    "cover": "https://upload.wikimedia.org/wikipedia/en/thumb/0/04/Goldie_Timeless.jpg/220px-Goldie_Timeless.jpg",
    "name": "Goldie - Timeless"
  },
  "sasha_and_john_digweed-northern_exposure": {
    "cover": "https://upload.wikimedia.org/wikipedia/en/thumb/0/0e/Ne1.jpg/220px-Ne1.jpg",
    "name": "Sasha and John Digweed - Northern exposure"
  },
  "justice-cross": {
    "cover": "https://upload.wikimedia.org/wikipedia/en/thumb/7/71/Justice_-_Cross_%282007%29.jpg/220px-Justice_-_Cross_%282007%29.jpg",
    "name": "Justice - Cross"
  }
}